[gd_scene load_steps=6 format=2]

[ext_resource path="res://UI/Title.png" type="Texture" id=1]
[ext_resource path="res://UI/Frame.png" type="Texture" id=2]
[ext_resource path="res://Structures/StartButton.gd" type="Script" id=3]
[ext_resource path="res://UI/font/Comfortaa-Bold.ttf" type="DynamicFontData" id=4]

[sub_resource type="DynamicFont" id=1]

size = 64
use_mipmaps = false
use_filter = false
font_data = ExtResource( 4 )
_sections_unfolded = [ "Font", "Resource", "Settings" ]

[node name="Title" type="TextureRect"]

anchor_left = 0.0
anchor_top = 0.0
anchor_right = 0.0
anchor_bottom = 0.0
margin_right = 40.0
margin_bottom = 40.0
rect_pivot_offset = Vector2( 0, 0 )
rect_clip_content = false
mouse_filter = 1
mouse_default_cursor_shape = 0
size_flags_horizontal = 1
size_flags_vertical = 1
texture = ExtResource( 1 )
stretch_mode = 0

[node name="StartButton" type="TextureButton" parent="." index="0"]

anchor_left = 0.0
anchor_top = 0.0
anchor_right = 0.0
anchor_bottom = 0.0
margin_left = 332.0
margin_top = 646.0
margin_right = 780.0
margin_bottom = 774.0
rect_pivot_offset = Vector2( 0, 0 )
rect_clip_content = false
focus_mode = 2
mouse_filter = 0
mouse_default_cursor_shape = 0
size_flags_horizontal = 1
size_flags_vertical = 1
toggle_mode = false
enabled_focus_mode = 2
shortcut = null
group = null
texture_normal = ExtResource( 2 )
expand = true
script = ExtResource( 3 )
_sections_unfolded = [ "Textures" ]

[node name="Label" type="Label" parent="StartButton" index="0"]

anchor_left = 0.0
anchor_top = 0.0
anchor_right = 0.0
anchor_bottom = 0.0
margin_right = 446.0
margin_bottom = 127.0
rect_pivot_offset = Vector2( 0, 0 )
rect_clip_content = false
mouse_filter = 2
mouse_default_cursor_shape = 0
size_flags_horizontal = 1
size_flags_vertical = 1
custom_fonts/font = SubResource( 1 )
custom_colors/font_color = Color( 1, 1, 1, 1 )
custom_colors/font_color_shadow = Color( 0, 0, 0, 1 )
text = "START"
align = 1
valign = 1
percent_visible = 1.0
lines_skipped = 0
max_lines_visible = -1
_sections_unfolded = [ "Size Flags", "custom_colors", "custom_fonts" ]


