[gd_scene load_steps=8 format=2]

[ext_resource path="res://Turrets/Turret.gd" type="Script" id=1]
[ext_resource path="res://Things/GreenFlame/GreenFlame1.tscn" type="PackedScene" id=2]
[ext_resource path="res://Turrets/Wizard/Wizard2.tscn" type="PackedScene" id=3]
[ext_resource path="res://Turrets/Wizard/Wizard1.png" type="Texture" id=4]
[ext_resource path="res://Turrets/Wizard/WizardHover.png" type="Texture" id=5]
[ext_resource path="res://Turrets/Wizard/WizardPressed.png" type="Texture" id=6]

[sub_resource type="CircleShape2D" id=1]

custom_solver_bias = 0.0
radius = 800.0

[node name="Wizard" type="Area2D"]

input_pickable = true
gravity_vec = Vector2( 0, 1 )
gravity = 98.0
linear_damp = 0.1
angular_damp = 1.0
collision_layer = 2
collision_mask = 4
audio_bus_override = false
audio_bus_name = "Master"
script = ExtResource( 1 )
_sections_unfolded = [ "Collision", "Pickable", "Transform" ]
fireCooldown = 0.65
fireRange = 700
current_level = 1
upgrade_cost = 90
Projectile = ExtResource( 2 )
projectile_count = 5
spread = 25
nextLevel = ExtResource( 3 )
normal = ExtResource( 4 )
hover = ExtResource( 5 )
pressed = ExtResource( 6 )

[node name="CollisionShape2D" type="CollisionShape2D" parent="." index="0"]

shape = SubResource( 1 )

[node name="Sprite" type="Sprite" parent="." index="1"]

scale = Vector2( 2, 2 )
texture = ExtResource( 4 )
_sections_unfolded = [ "Collision", "Transform" ]


