[gd_scene load_steps=4 format=2]

[ext_resource path="res://Things/Projectile.gd" type="Script" id=1]
[ext_resource path="res://Things/GreenFlame/GreenFlame.png" type="Texture" id=2]

[sub_resource type="CapsuleShape2D" id=1]

custom_solver_bias = 0.0
radius = 16.0
height = 32.0

[node name="GreenFlame" type="KinematicBody2D" index="0"]

input_pickable = false
collision_layer = 16
collision_mask = 12
collision/safe_margin = 0.08
script = ExtResource( 1 )
_sections_unfolded = [ "Collision", "collision" ]
Explosion = null
speed = 400
damage = 6
limit = 800

[node name="Sprite" type="Sprite" parent="." index="0"]

texture = ExtResource( 2 )
_sections_unfolded = [ "Transform" ]

[node name="CollisionShape2D" type="CollisionShape2D" parent="." index="1"]

shape = SubResource( 1 )


