[gd_scene load_steps=5 format=2]

[ext_resource path="res://Enemies/BlueBird.gd" type="Script" id=1]
[ext_resource path="res://Things/Dust.tscn" type="PackedScene" id=2]
[ext_resource path="res://Enemies/BlueBird.png" type="Texture" id=3]

[sub_resource type="CapsuleShape2D" id=1]

custom_solver_bias = 0.0
radius = 48.0
height = 256.0

[node name="Bird" type="Area2D"]

input_pickable = true
gravity_vec = Vector2( 0, 1 )
gravity = 98.0
linear_damp = 0.1
angular_damp = 1.0
collision_layer = 4
collision_mask = 17
audio_bus_override = false
audio_bus_name = "Master"
script = ExtResource( 1 )
_sections_unfolded = [ "Collision" ]
Dust = ExtResource( 2 )
damage = 1
health = 1
speed = 400
dust_drop = 1
avoid_duration = 2
roam_distance = 1000

[node name="CollisionShape2D" type="CollisionShape2D" parent="." index="0"]

shape = SubResource( 1 )

[node name="Sprite" type="Sprite" parent="." index="1"]

texture = ExtResource( 3 )
offset = Vector2( -6, 0 )
_sections_unfolded = [ "Offset" ]


