[gd_scene load_steps=5 format=2]

[ext_resource path="res://Enemies/Structure.gd" type="Script" id=1]
[ext_resource path="res://Things/Dust.tscn" type="PackedScene" id=2]
[ext_resource path="res://Structures/Create.png" type="Texture" id=3]

[sub_resource type="RectangleShape2D" id=1]

custom_solver_bias = 0.0
extents = Vector2( 224, 224 )

[node name="Box" type="KinematicBody2D"]

scale = Vector2( 0.5, 0.5 )
input_pickable = false
collision_layer = 64
collision_mask = 1
collision/safe_margin = 0.08
script = ExtResource( 1 )
Dust = ExtResource( 2 )
dust_drop = 1
health = 2

[node name="Sprite" type="Sprite" parent="." index="0"]

texture = ExtResource( 3 )

[node name="CollisionShape2D" type="CollisionShape2D" parent="." index="1"]

shape = SubResource( 1 )


