[gd_scene load_steps=5 format=2]

[ext_resource path="res://Platforms/Platform1.png" type="Texture" id=1]
[ext_resource path="res://Platforms/Platform.gd" type="Script" id=2]
[ext_resource path="res://Platforms/Platform2.tscn" type="PackedScene" id=3]
[ext_resource path="res://Platforms/Slot.gd" type="Script" id=4]

[node name="Platform" type="Sprite"]

texture = ExtResource( 1 )
script = ExtResource( 2 )
_sections_unfolded = [ "Pause" ]
next = ExtResource( 3 )

[node name="Slot1" type="Node2D" parent="." index="0"]

position = Vector2( 0, 128 )
script = ExtResource( 4 )
_sections_unfolded = [ "Transform" ]
slot_name = "slot1"

[node name="Slot2" type="Node2D" parent="." index="1"]

position = Vector2( 0, 64 )
script = ExtResource( 4 )
_sections_unfolded = [ "Transform" ]
slot_name = "slot2"


