[gd_scene load_steps=3 format=2]

[ext_resource path="res://UI/AddMenu.tscn" type="PackedScene" id=1]
[ext_resource path="res://UI/UpgradeFrame.tscn" type="PackedScene" id=2]

[node name="SlotAndMenu" type="HBoxContainer"]

anchor_left = 0.0
anchor_top = 0.0
anchor_right = 0.0
anchor_bottom = 0.0
margin_right = 40.0
margin_bottom = 40.0
rect_pivot_offset = Vector2( 0, 0 )
rect_clip_content = false
mouse_filter = 1
mouse_default_cursor_shape = 0
size_flags_horizontal = 1
size_flags_vertical = 1
alignment = 2

[node name="AddMenu" parent="." index="0" instance=ExtResource( 1 )]

margin_right = 332.0
margin_bottom = 80.0

[node name="UpgradeFrame" parent="." index="1" instance=ExtResource( 2 )]

margin_left = 336.0
margin_right = 416.0


